docs/images/mixed_attack.vcd
$date
   Thu Jun 25 09:53:54 2026
$end

$version
  2025.2
  $dumpfile (vp) 
$end

$timescale
  1ps
$end

$scope module tb_gnss_top $end
$var reg 32 $ s_tdata [31:0] $end
$var reg 1 # s_tlast $end
$var reg 1 ! s_tvalid $end
$var reg 1 " s_tready $end
$var reg 1 ' m_tlast $end
$var reg 1 % m_tvalid $end
$var reg 1 & m_tready $end
$scope module dut $end
$var wire 1 * tap_tlast $end
$var wire 1 ( tap_tvalid $end
$var wire 1 ) tap_tready $end
$upscope $end
$upscope $end
$enddefinitions $end

#0
$dumpvars
x!
x"
x#
bx $
x%
x&
x'
x(
x)
x*
$end

#5000
0!
1"
0#
b0 $
0%
1&
0(
1)
0*

#65000
1!
b11111010001001111011001101011011 $

#75000
b100011000001111110110111000111 $

#85000
b1001000111101111101111110100100 $

#95000
b11001111011000011101100111001100 $

#105000
b11111010110111101001111011110 $
1(

#115000
b1111111111111111111001110110010 $

#125000
0!

#135000
0&

#155000
0(

#195000
1!
b11010100011011000000100010010111 $

#205000
b1110110101101111101101101110111 $

#215000
b1111010000010001110000111100 $

#225000
b11100111111111111001010111101110 $
1&
1(

#235000
b11111101011110011011101001 $

#245000
b11110111011000110001111001111001 $

#255000
b11111101000011001011010110110011 $

#265000
0!

#295000
0(

#315000
0&

#335000
1!
b101010110011010001010000101001 $

#345000
b10111001101111111111101100111000 $

#355000
b110000110000001110010011001011 $

#365000
b11101010101011100010101110101010 $
1(

#375000
b11111011001011010000100000110111 $

#385000
b10100111111011101100000010110 $

#395000
b11011000010011100010100010010010 $

#405000
0!
1&

#435000
0(

#475000
1!
b10101000111000100000110110010001 $

#485000
b111101111011010010101010001101 $

#495000
b1100100000101100011101011010001 $
0&

#505000
b10100111101111110000101101000101 $
1(

#515000
b11100101001000101110110010110010 $

#525000
b11111111101110001000000000000001 $

#535000
b110010011111101100111101111010 $

#545000
0!

#575000
0(

#585000
1&

#615000
1!
b1101001110000010010001001010111 $

#625000
b11000001000001100000101111001011 $

#635000
b1000010100101010010001111011110 $

#645000
b10111011010111100100111101011001 $
1(

#655000
b110110101110111011001001001010 $

#665000
b11110010011111000000101101100001 $

#675000
b10111011001011001010000001011101 $
0&

#685000
0!

#715000
0(

#755000
1!
b111110110111011100111110000110 $

#765000
b1000011110110010001001110001110 $
1&

#775000
b11011011100011100000000000011110 $

#785000
b1011100000111110010101010111101 $
1(

#795000
b1110111010101110001111001101101 $

#805000
b1011101011100001010111111000011 $

#815000
b10010011101100001111100101 $

#825000
0!

#855000
0&
0(

#895000
1!
b1101100111101001100100000000010 $

#905000
b11101011110111000000001010101101 $

#915000
b10011010110010101100111101111011 $

#925000
b11101010001110001110101111001111 $
1(

#935000
b1011011101000110010000001010010 $

#945000
b11110100110000011110100011110111 $
1&

#955000
b10110111111011111111100101111001 $

#965000
0!

#995000
0(

#1035000
1!
b1001001001110011111110101000111 $
0&

#1045000
b10101010010010110101000110100111 $

#1055000
b11010110010101010100100011100110 $

#1065000
b11000110110001000000000000001 $
1(

#1075000
b11100100001110110110010001100011 $

#1085000
b111100110111001011110011011010 $

#1095000
b11111001100000011011000101000110 $

#1105000
0!

#1125000
1&

#1135000
0(

#1175000
1!
b11011111010100101011001000001010 $

#1185000
b11011001100110111100011100111001 $

#1195000
b10100111101011100100010001110 $

#1205000
b10101111011000001100000000100010 $
1(

#1215000
b1010000110100011110111010011011 $
0&

#1225000
b111110010110111100110000100100 $

#1235000
b11001100101110111111000100101110 $

#1245000
0!

#1275000
0(

#1305000
1&

#1315000
1!
b10000000000000010011110010011000 $

#1325000
b1001010011011101110101110111100 $

#1335000
b11111110100000100000111101111101 $

#1345000
b11010110101001000000001011111010 $
1(

#1355000
b11111100001111110001011110110110 $

#1365000
b10110001010110110011101100101000 $

#1375000
b1111010111011110010000001100 $

#1385000
0!

#1395000
0&

#1415000
0(

#1455000
1!
b1000010101001011101011110100000 $

#1465000
b1111111101101110000001000001 $

#1475000
b101000010111111100101001011111 $

#1485000
b1011110111111010011100010000 $
1&
1(

#1495000
b110111101010011101001110001100 $

#1505000
b11011001110000101010111110100111 $

#1515000
b101010100000100010110000110100 $

#1525000
0!

#1555000
0(

#1575000
0&

#1595000
1!
b1111100001011111100110101110 $

#1605000
b10001001111100000100011101110 $

#1615000
b11111000101110011110101001110001 $

#1625000
b11110000111100110111100101011010 $
1(

#1635000
b101100001010111110100100001101 $

#1645000
b10000010001001111010111010011 $

#1655000
b11011101110110101100000110011100 $

#1665000
0!
1&

#1695000
0(

#1735000
1!
b1101111110010001001100000010 $

#1745000
b11111101101110000101001000001011 $

#1755000
b11000100011001111010101000010 $
0&

#1765000
b1010001010100001110011000001101 $
1(

#1775000
b10110010010110001110111100110011 $

#1785000
b11100011110101110000011100010100 $

#1795000
b11000111011010011100110000011100 $

#1805000
0!

#1835000
0(

#1845000
1&

#1875000
1!
b10100101101000011100101001111100 $

#1885000
b111001110100110110100110000010 $

#1895000
b11001101011001001110100101010011 $

#1905000
b11110101111001111111000110111001 $
1(

#1915000
b10001110110010111010100001100100 $

#1925000
b11111101011100011110000101001010 $

#1935000
b10010010100011110011001001101111 $
0&

#1945000
0!

#1975000
0(

#2015000
1!
b100110110011001100100000110001 $

#2025000
b1101101000001111111001101011100 $
1&

#2035000
b1010000100000101111000110001000 $

#2045000
b1111111111111111101101101000111 $
1(

#2055000
b110111011000110001001010001100 $

#2065000
b10111000001001101011000101001 $

#2075000
b1000001110000111110101001000000 $

#2085000
0!

#2115000
0&
0(

#2155000
1!
b11011111100000001100011001000001 $

#2165000
b11111000101000010011100010111110 $

#2175000
b11010001101111111110001101110110 $

#2185000
b1001111100111011011001010000010 $
1(

#2195000
b11011110101001010001000100111010 $

#2205000
b11001011001001001101000000011110 $
1&

#2215000
b11101001001111111100011101100100 $

#2225000
0!

#2255000
0(

#2295000
1!
b11110001001111111111100101011110 $
0&

#2305000
b10111101111001110001001010100111 $

#2315000
b101001100100111110010100111000 $

#2325000
b11110010101011010111010110001100 $
1(

#2335000
b11010000001011000010111100000110 $

#2345000
b11110001011100111100110000000 $

#2355000
b11110000000011010001011110000100 $

#2365000
0!

#2385000
1&

#2395000
0(

#2435000
1!
b10110011100011000011010001111101 $

#2445000
b10110010000000101100110111 $

#2455000
b11110010000000111011100010111010 $

#2465000
b11111111000011000100011010111000 $
1(

#2475000
b10011010001111101110010000000010 $
0&

#2485000
b11100110000010010100011000001011 $

#2495000
b11110111101010011001111011100111 $

#2505000
0!

#2535000
0(

#2565000
1&

#2575000
1!
b10110011110010010011101101010010 $

#2585000
b100010111111101100100000101010 $

#2595000
b11110000111110101111001111001001 $

#2605000
b10000101111011011100111110101 $
1(

#2615000
b11110100110110100011000111010111 $

#2625000
b1000000101111101100001110010 $

#2635000
b10000000000000010010010000001100 $

#2645000
0!

#2655000
0&

#2675000
0(

#2715000
1!
b101001011001011111001101010011 $

#2725000
b11010011110101001110110110001110 $

#2735000
b11000010000011101101000110100001 $

#2745000
b11010001101000101101101011010101 $
1&
1(

#2755000
b1100000111011001010111110100010 $

#2765000
b11111000010111000101000000011111 $

#2775000
b10111011001110110000101011011010 $

#2785000
0!

#2815000
0(

#2835000
0&

#2855000
1!
b11011110001101011011111111 $

#2865000
b11100111100001001101100010000001 $

#2875000
b110100001111011101110010101101 $

#2885000
b111100101000010011101001101000 $
1(

#2895000
b11111111101101010000100010111110 $

#2905000
b1011000010111000010010001010000 $

#2915000
b11010110000110010011110010100 $

#2925000
0!
1&

#2955000
0(

#2995000
1!
b110000101110110101010100101011 $

#3005000
b11011100001111000010111101110110 $

#3015000
b111010010000001101000000001001 $
0&

#3025000
b110111111010011010111110001111 $
1(

#3035000
b1100101010010010101111011010 $

#3045000
b11001111000110011100100100101111 $

#3055000
b11100000011101110110000111110111 $

#3065000
0!

#3095000
0(

#3105000
1&

#3135000
1!
b10100111001010011100110101111110 $

#3145000
b11111100111110100100101100110000 $

#3155000
b1011001001000100010001000001110 $

#3165000
b11110011110000010001100101001110 $
1(

#3175000
b10111001010110011010111011110 $

#3185000
b1001110000010010000001000000010 $

#3195000
b100110011110110001100000011111 $
0&

#3205000
0!

#3235000
0(

#3275000
1!
b10011011010010010000001000111011 $

#3285000
b1111111111111111100100001000110 $
1&

#3295000
b101010111010110101000110001111 $

#3305000
b11100111001010100111111111111111 $
1(

#3315000
b10100100111111110110010001000000 $

#3325000
b11100100011110010000110110100110 $

#3335000
b1000000111111100001010100000001 $

#3345000
0!

#3375000
0&
0(

#3415000
1!
b10011000101110110001000010000110 $

#3425000
b110000100100101111101100100011 $

#3435000
b11001101110101010001011100 $

#3445000
b11111100100001111111100101010100 $
1(

#3455000
b1110100010000011100101000110011 $

#3465000
b100000000100011111110001101000 $
1&

#3475000
b11111101100101000100000110010011 $

#3485000
0!

#3515000
0(

#3555000
1!
b10111100010000111101011001100010 $
0&

#3565000
b10100011111010010001001110010 $

#3575000
b110101000011001011101111011010 $

#3585000
b111011110010111011001100101101 $
1(

#3595000
b11011110011101101101100111010101 $

#3605000
b1011000110010100111111011001 $

#3615000
b11111010101001100010101110000011 $

#3625000
0!

#3645000
1&

#3655000
0(

#3695000
1!
b1001000010001110011000011010 $

#3705000
b10110101011010000111010011100010 $

#3715000
b1001101001010110111010011101000 $

#3725000
b10101110110110000010101000111 $
1(

#3735000
b11010111001011001001111110001001 $
0&

#3745000
b11100101101010011011101100000 $

#3755000
b11101111110000110000000101011011 $

#3765000
0!

#3795000
0(

#3825000
1&

#3835000
1!
b10101111011010110101001101101011 $

#3845000
b11011000100010110010010010101111 $

#3855000
b11011101101111101001110010011 $

#3865000
b11011010100110000001110011001100 $
1(

#3875000
b1000100000000011101100111011011 $

#3885000
b11110011001110110011010100010100 $

#3895000
b1010011100001110000000011001011 $

#3905000
0!

#3915000
0&

#3935000
0(

#3975000
1!
b1100100110000001110111100100000 $

#3985000
b11110011111011011110010011111100 $

#3995000
b10111000000010001111101010001001 $

#4005000
b10001011101011110010101010001 $
1&
1(

#4015000
b100010110010110000111111011111 $

#4025000
b11001111000010100000100010101001 $

#4035000
b11111011101000000011010100101 $

#4045000
0!

#4075000
0(

#4095000
0&

#4115000
1!
b10011010000011111010000111111 $

#4125000
b11100001100111001110001101001011 $

#4135000
b11101110100000101110011011110101 $

#4145000
b10011010011100010101010000011100 $
1(

#4155000
b11101011010101100110111101001 $

#4165000
b10111000000010010001100010010 $

#4175000
b10101010011001000100100101010001 $

#4185000
0!
1&

#4215000
0(

#4255000
1!
b11001111001011100010000000110011 $

#4265000
b1001111100000110100111111110110 $

#4275000
b11111010111010110000001111101100 $
0&

#4285000
b1000001110101101000010110000 $
1(

#4295000
b100011000101001011100000110011 $

#4305000
b1100111010011111101000111110 $

#4315000
b1001001100011101101100110011010 $

#4325000
0!

#4355000
0(

#4365000
1&

#4395000
1!
b10011011101011011011001100111 $

#4405000
b11011000111010000000111100011010 $

#4415000
b10101011001000101111011000000 $

#4425000
b101100110110011110110110011111 $
1(

#4435000
b11011101010101001100001101110100 $

#4445000
b11011111110100111111101101110100 $

#4455000
b1001101101001101110111000010 $
0&

#4465000
0!

#4495000
0(

#4535000
1!
b10110110111110101011111101011110 $

#4545000
b101010000011111101101000110010 $
1&

#4555000
b1001011010101101101010000000001 $

#4565000
b11100101001110010011010001010110 $
1(

#4575000
b10110110000101110000000010100 $

#4585000
b1001100110001110011001110010101 $

#4595000
b10100111101100000000000111011110 $

#4605000
0!

#4635000
0&
0(

#4675000
1!
b11110100011010001010000010101011 $

#4685000
b101000000000111011001001001010 $

#4695000
b11101110110000111111000100000110 $

#4705000
b11001010000001000001011110111000 $
1(

#4715000
b11001111001000010011011111001100 $

#4725000
b10010011010100100000101010011 $
1&

#4735000
b11000101010010110000111010100001 $

#4745000
0!

#4775000
0(

#4815000
1!
b110000011110000001000001001010 $
0&

#4825000
b10010101110011101111111001100011 $

#4835000
b1010110101111101011101111011111 $

#4845000
b101111100010000000001111101010 $
1(

#4855000
b10000000000000011110011001111010 $

#4865000
b11101111100000001100010011111100 $

#4875000
b11001000110110011010101001010001 $

#4885000
0!

#4905000
1&

#4915000
0(

#4955000
1!
b1011100000110011011001001111 $

#4965000
b11100000111110010100011110011 $

#4975000
b11111000100101111111110101100000 $

#4985000
b11111010000010010011100010101011 $
1(

#4995000
b1001110011111111101010110100011 $
0&

#5005000
b11010011101101111100110010111111 $

#5015000
b1100011101000101100000110001010 $

#5025000
0!

#5055000
0(

#5085000
1&

#5095000
1!
b11011111101111001100110001000111 $

#5105000
b11011011010011000011011011001100 $

#5115000
b11110101010111010100110100110011 $

#5125000
b1000010001000001110011110001011 $
1(

#5135000
b111111100111101101110011100 $

#5145000
b11010111101011100010000100110111 $

#5155000
b11100010110010000000000000011100 $

#5165000
0!

#5175000
0&

#5195000
0(

#5235000
1!
b10100100111001100110010011010001 $

#5245000
b10000000000000011111111011101100 $

#5255000
b11011010011011000101110100001110 $

#5265000
b1000101100111110011000101001011 $
1&
1(

#5275000
b11001110111101011100110111011000 $

#5285000
b11100000111011001100101010010001 $

#5295000
b11111011001101000001010000011111 $

#5305000
0!

#5335000
0(

#5355000
0&

#5375000
1!
b100000111100000010101100001110 $

#5385000
b1110111101100101010110010011 $

#5395000
b111111110010101110100101010110 $

#5405000
b11011111111011010000100110010101 $
1(

#5415000
b1000100001011011000100101 $

#5425000
b1101101111100000001111000110001 $

#5435000
b11100111011010011110000101011 $

#5445000
0!
1&

#5475000
0(

#5515000
1!
b10101010001111010100001111000100 $

#5525000
b11110111010011111011111100100100 $

#5535000
b10101010110011100100010101011011 $
0&

#5545000
b111010000001010000101001011001 $
1(

#5555000
b110101011110101010000001000011 $

#5565000
b11101100000001000001100011101000 $

#5575000
b10010100000101100001010111100 $

#5585000
0!

#5615000
0(

#5625000
1&

#5655000
1!
b1100100000010011101111101000 $

#5665000
b1111111111111111111000001010001 $

#5675000
b11110100000011101101001111100110 $

#5685000
b11011010111100011101111101001110 $
1(

#5695000
b100001111111110001111100101100 $

#5705000
b11000000001111010011110000100000 $

#5715000
b10000000000000010000000100100110 $
0&

#5725000
0!

#5755000
0(

#5795000
1!
b1001010000110101111111010111010 $

#5805000
b10101011100011101110111100001100 $
1&

#5815000
b10011100001110111100100 $

#5825000
b10011001000101010001111001000110 $
1(

#5835000
b1011101011001010001110011100110 $

#5845000
b1101100010001100010100010000 $

#5855000
b111000011100111111110100010010 $

#5865000
0!

#5895000
0&
0(

#5935000
1!
b111010101100110000110011010011 $

#5945000
b11101100110011100001000001101011 $

#5955000
b11110001101001100111001001100001 $

#5965000
b11111100111011111011011110111100 $
1(

#5975000
b11000111101001011101111110110101 $

#5985000
b111100011000001110111001111001 $
1&

#5995000
b1110100111101111010010100001 $

#6005000
0!

#6035000
0(

#6075000
1!
b11001111101010111010100010100010 $
0&

#6085000
b11000101001100101110110011011011 $

#6095000
b11100110000011110111101010010010 $

#6105000
b1110111000111101000001011 $
1(

#6115000
b11001000010000111101010001100100 $

#6125000
b101110000011000101010000100111 $

#6135000
b11100101000110100101010000110110 $

#6145000
0!

#6165000
1&

#6175000
0(

#6215000
1!
b1111010000101010001101110010111 $

#6225000
b11111101101100010000011101010110 $

#6235000
b1111110100000111111110111111100 $

#6245000
b1000110010000110000110110100111 $
1(

#6255000
b1111010111000100101101000100 $
0&

#6265000
b110000010011101100010010111111 $

#6275000
b10001001110001111101101100101111 $

#6285000
0!

#6315000
0(

#6345000
1&

#6355000
1!
b10111100000110110100011000110010 $

#6365000
b11010000110100001001111111011 $

#6375000
b1011010010100100110111101100111 $

#6385000
b10101110101110011101101101010 $
1(

#6395000
b1010001010010011100010011101 $

#6405000
b10111011000101111011100110111100 $

#6415000
b10100010010001000110000000 $

#6425000
0!

#6435000
0&

#6455000
0(

#6495000
1!
b1111111111111110011101011010011 $

#6505000
b11001111011010111111011010111001 $

#6515000
b110101101010011110100111100010 $

#6525000
b11010011110111011110001111000010 $
1&
1(

#6535000
b10001011001100110110110001000001 $

#6545000
b11110011000110111101000001100000 $

#6555000
b10010000001101110111010101000 $

#6565000
0!

#6595000
0(

#6615000
0&

#6635000
1!
b11100011100110100111001111101100 $

#6645000
b1001011110001100111000001101101 $

#6655000
b10001001010111110010001001111001 $

#6665000
b11101000011010101000000111100000 $
1(

#6675000
b11010011010110011100100101001111 $

#6685000
b11101111101101100000000011010011 $

#6695000
b111100000100110011000111001011 $

#6705000
0!
1&

#6735000
0(

#6775000
1!
b1011110111101101011111000101001 $

#6785000
b11010001000001111100010101001010 $

#6795000
b11100100001010100100101110011111 $
0&

#6805000
b11000110101010100010001010111111 $
1(

#6815000
b10110011101010000010110110001010 $

#6825000
b100101011111000011011010011001 $

#6835000
b11000010000010000000000001011000 $

#6845000
0!

#6875000
0(

#6885000
1&

#6915000
1!
b11001111010110000011011111111110 $

#6925000
b1010001000101010010100010101001 $

#6935000
b11010100110111010001110100111000 $

#6945000
b1000000010000110011011000000011 $
1(

#6955000
b11000001000000001000010110001 $

#6965000
b10001111000001010100100011011011 $

#6975000
b11111100001010000001001000010110 $
0&

#6985000
0!

#7015000
0(

#7055000
1!
b1010010000000111101000011111111 $

#7065000
b1001101011010100110100110010111 $
1&

#7075000
b11111011101001101101000110011000 $

#7085000
b11111011001101101111001100001111 $
1(

#7095000
b11110011000101011101101110001001 $

#7105000
b111101010001001011001000000011 $

#7115000
b10000011110001100101110000101 $

#7125000
0!

#7155000
0&
0(

#7195000
1!
b11010001110010101100101010011100 $

#7205000
b11010110111011100110011100100010 $

#7215000
b11100001110011001011010000000000 $

#7225000
b10100010000001011101101010101 $
1(

#7235000
b11011010010011001101101010101110 $

#7245000
b101010100111101111100110001011 $
1&

#7255000
b10000000000000011101110010111111 $

#7265000
0!

#7295000
0(

#7335000
1!
b100100001010000100111011000101 $
0&

#7345000
b1100000001010100111101011010 $

#7355000
b100100101101010001001001111100 $

#7365000
b11000010110100000000011000100001 $
1(

#7375000
b10011111010001000101000001 $

#7385000
b11000010010010101110000110111000 $

#7395000
b100011011000100111111111111111 $

#7405000
0!

#7425000
1&

#7435000
0(

#7475000
1!
b10011010011010100011000010001101 $

#7485000
b111100000010100000010000011 $

#7495000
b101010001110110000001100001110 $

#7505000
b11011001001001111011110111000101 $
1(

#7515000
b110110001100001110000101110000 $
0&

#7525000
b11110011110010110010000001110010 $

#7535000
b10101000100010111111011111101110 $

#7545000
0!

#7575000
0(

#7605000
1&

#7615000
1!
b10111100101001011111100001000000 $

#7625000
b11000000101010111010000101010111 $

#7635000
b1111111111111111100100000010100 $

#7645000
b11111111011110011111011101011 $
1(

#7655000
b11111001000100111100111000111111 $

#7665000
b11010000000010010001110100011001 $

#7675000
b11001110111110010011010111 $

#7685000
0!

#7695000
0&

#7715000
0(

#7755000
1!
b10100011001000110010000100001001 $

#7765000
b1111000111110000101001100001000 $

#7775000
b11110010110001101001111101001101 $

#7785000
b11110011111000111100101010010010 $
1&
1(

#7795000
b1011111001001100101001011111110 $

#7805000
b11111101000010110010001000110111 $

#7815000
b110000000000111010001001010110 $

#7825000
0!

#7855000
0(

#7875000
0&

#7895000
1!
b101111001010010100011110110101 $

#7905000
b1000001111100010100010111101000 $

#7915000
b10111011000010001001100000010 $

#7925000
b111001010111110000001010011000 $
1(

#7935000
b110111111001001111110010011 $

#7945000
b100100001100010011111101111000 $

#7955000
b11010011011101101111111011011001 $

#7965000
0!
1&

#7995000
0(

#8035000
1!
b10100111100001101110001111 $

#8045000
b11110000011001111100111010111011 $

#8055000
b10110100010001010011101101000001 $
0&

#8065000
b11100110001110011001110100010010 $
1(

#8075000
b100110000110101111110010001011 $

#8085000
b11101110101101000011111001111011 $

#8095000
b1100110111000000000000001 $

#8105000
0!

#8135000
0(

#8145000
1&

#8175000
1!
b11011010100100101111001101111111 $

#8185000
b1100100110101101101010011010111 $

#8195000
b11000010101110101111110000010110 $

#8205000
b10110011101100110100101000100100 $
1(

#8215000
b101010011000010001000001 $

#8225000
b11100111000010000000100101111000 $

#8235000
b11111100000101101110101100001110 $
0&

#8245000
0!

#8275000
0(

#8315000
1!
b11101010000110001010000100111110 $

#8325000
b10100110011101000000111001000011 $
1&

#8335000
b100010111110111110001010001101 $

#8345000
b10000000000000011101011110110110 $
1(

#8355000
b101110011101101000111011111 $

#8365000
b10010111111101011001000000111 $

#8375000
b10010101001000000011010111001100 $

#8385000
0!

#8415000
0&
0(

#8455000
1!
b11101101100111011110011000111000 $

#8465000
b101000110011011111101010011001 $

#8475000
b11000100110110100110011011010110 $

#8485000
b11111100100001100101001001100 $
1(

#8495000
b100001000111000111101000110011 $

#8505000
b11000111001100110010010111000110 $
1&

#8515000
b11010000101000011100110101000111 $

#8525000
0!

#8555000
0(

#8595000
1!
b11110110101001010111111111111111 $
0&

#8605000
b1011100111010111100100110110 $

#8615000
b11011101100111111101100010101101 $

#8625000
b11100000000000100000011110011011 $
1(

#8635000
b11100000001110001111111011111 $

#8645000
b11101011010010010000100010000 $

#8655000
b11001001010100101110111011100 $

#8665000
0!

#8685000
1&

#8695000
0(

#8735000
1!
b1101000000110011011110000001011 $

#8745000
b11001100110100111000000000000001 $

#8755000
b1011001000111110100011100110010 $

#8765000
b11010100011101011010001110011101 $
1(

#8775000
b11101001111101001100011000111111 $
0&

#8785000
b10110001000010111011011011000010 $

#8795000
b11000010001010011101100100011000 $

#8805000
0!

#8835000
0(

#8865000
1&

#8875000
1!
b11110011011001011110000100000100 $

#8885000
b10010101111000111101001110110101 $

#8895000
b11011010100101001111100111100111 $

#8905000
b11110100010001101110110101010000 $
1(

#8915000
b101001000011100001000011000111 $

#8925000
b11111101011100001110111000111001 $

#8935000
b11101101000100110001111111000111 $

#8945000
0!

#8955000
0&

#8975000
0(

#9015000
1!
b11111101110100101011111101011111 $

#9025000
b10110000011110101100010101011110 $

#9035000
b11000111001010000100111001000101 $

#9045000
b11010101100101001011011001000010 $
1&
1(

#9055000
b11110101110110001100011100010111 $

#9065000
b100001001000010111111111111111 $

#9075000
b11110110001001001110101000110000 $

#9085000
0!

#9115000
0(

#9135000
0&

#9155000
1!
b11110010000100110110001010110101 $

#9165000
b10011001100010000110101100100 $

#9175000
b10110001001011000000000000001 $

#9185000
b1101000110100111010111101111100 $
1(

#9195000
b11011111010100000001111101100 $

#9205000
b101001101110111011101000101001 $

#9215000
b11011001110110100011010110111110 $

#9225000
0!
1&

#9255000
0(

#9295000
1!
b11001000001101001011110001001 $

#9305000
b11011100010110100110110110111 $

#9315000
b11000111000101000000010101100111 $
0&

#9325000
b11101011101100101111001110010001 $
1(

#9335000
b11011000111110101101110101100110 $

#9345000
b10110011010010001011011010100100 $

#9355000
b11001111110111001101001110000110 $

#9365000
0!

#9395000
0(

#9405000
1&

#9435000
1!
b11111001100010101110010001010111 $

#9445000
b11110100011101101111001110101000 $

#9455000
b1111111111111110111000100101110 $

#9465000
b1000100011011110101011101101110 $
1(

#9475000
b1111010100100110101101010100011 $

#9485000
b101101100000100011101110110001 $

#9495000
b11011001001010110110111011110111 $
0&

#9505000
0!

#9535000
0(

#9575000
1!
b11001100001101000000111101011101 $

#9585000
b11111101111010100100000011100111 $
1&

#9595000
b1001100111101010001011000010110 $

#9605000
b11100110000111010001111111010000 $
1(

#9615000
b10011000001001100101110101011101 $

#9625000
b10010000101011101101111101100 $

#9635000
b11110011110001011011000000010 $

#9645000
0!

#9675000
0&
0(

#9715000
1!
b11000001001010010001100100000100 $

#9725000
b11000111100110111011001110100001 $

#9735000
b11111110110111110000110011101100 $

#9745000
b1101111000101110000100011100011 $
1(

#9755000
b11111000110100111111001110101101 $

#9765000
b11111110011110111000110110000010 $
1&

#9775000
b11101100100000001011111110010110 $

#9785000
0!

#9815000
0(

#9855000
1!
b11100010010010011011110101100001 $
0&

#9865000
b10110010001011001110001101111011 $

#9875000
b11100101101000110001001011000111 $

#9885000
b1100111111011100000110011011110 $
1(

#9895000
b11001100000111011100101000100000 $

#9905000
b11010011111011001110010111001000 $

#9915000
b1001011100001100010101011100 $

#9925000
0!

#9945000
1&

#9955000
0(

#9995000
1!
b11100101011001011110100000100 $

#10005000
b1011001110010010100001011110 $

#10015000
b1100000011100011100010010001010 $

#10025000
b11100010011111100000100110001010 $
1(

#10035000
b1010011000101111111000000111110 $
0&

#10045000
b10001100111000000110001000001 $

#10055000
b11001000011000110011011110000010 $

#10065000
0!

#10095000
0(

#10125000
1&

#10135000
1!
b111111110000110001011101100101 $

#10145000
b1000000100001010110110100000101 $

#10155000
b10011000111011101011101110010 $

#10165000
b100010011011110011010010100000 $
1(

#10175000
b11010000010010001101111110010101 $

#10185000
b11101011011101101001001111110 $

#10195000
b1111011101101111100011000010 $

#10205000
0!

#10215000
0&

#10235000
0(

#10275000
1!
b11100100111100001110001100000001 $

#10285000
b101110000100001010111111101101 $

#10295000
b1111111111111110011111111001011 $

#10305000
b111000010111100000101000101011 $
1&
1(

#10315000
b1011111001000110000011110100111 $

#10325000
b11101010001101010000100110110000 $

#10335000
b11111010100011100100011111110100 $

#10345000
0!

#10375000
0(

#10395000
0&

#10415000
1!
b11111111010110100000101010010 $

#10425000
b11011000100111011010101000001111 $

#10435000
b11001010001000110011011111001010 $

#10445000
b1001111010000001011101100100001 $
1(

#10455000
b10110110001101010011011101101001 $

#10465000
b111101011011001111110111010001 $

#10475000
b11001100010001011101100011111111 $

#10485000
0!
1&

#10515000
0(

#10555000
1!
b11001100101011101101100000101111 $

#10565000
b11100111101100100111000110011000 $

#10575000
b1110100101111110111010100011 $
0&

#10585000
b111110111101110101000111100 $
1(

#10595000
b11100011001110100101000111101000 $

#10605000
b11001000010010110000111111011010 $

#10615000
b1100100000001001110110011000 $

#10625000
0!

#10655000
0(

#10665000
1&

#10695000
1!
b11111111011001111110100011111100 $

#10705000
b11001011011111001011001100000111 $

#10715000
b11111110011010101011001110010111 $

#10725000
b10000000000000011110110101010111 $
1(

#10735000
b1011100001100000101111101010 $

#10745000
b11001111111100110010110011100011 $

#10755000
b11001010010101110001000110000 $
0&

#10765000
0!

#10795000
0(

#10835000
1!
b11111000001011111011000111010110 $

#10845000
b1101111010000010011111100001 $
1&

#10855000
b11110001011001011110100111011000 $

#10865000
b11001011111111000000100101110001 $
1(

#10875000
b111001000100101111010011011101 $

#10885000
b11010100011110001001010110001 $

#10895000
b1011110001110110100111110010100 $

#10905000
0!

#10935000
0&
0(

#10975000
1!
b10011001101111011011001001100100 $

#10985000
b11110111000010101100110100000101 $

#10995000
b11111110111010101110111101010001 $

#11005000
b10101010010010010100111110011111 $
1(

#11015000
b1011101000001101000011010111 $

#11025000
b11010001111000111101001111110100 $
1&

#11035000
b10111111000001111000000000000001 $

#11045000
0!

#11075000
0(

#11115000
1!
b11011010111110110001101000010000 $
0&

#11125000
b11010011110010001110010101101001 $

#11135000
b11001011101011001011101011011000 $

#11145000
b11101000010000001100100100110 $
1(

#11155000
b11100101000001110010001101000100 $

#11165000
b11110100010001101111000101000010 $

#11175000
b1110011111011111100101100011 $

#11185000
0!

#11205000
1&

#11215000
0(

#11255000
1!
b11011111001000000100010110110011 $

#11265000
b10000000000000011100101010110010 $

#11275000
b11110111101111110101110110101000 $

#11285000
b10100010101000010001111010111 $
1(

#11295000
b11011110001000000000010001110000 $
0&

#11305000
b10101001110010010100111011101 $

#11315000
b1000101101000110111111111111111 $

#11325000
0!

#11355000
0(

#11385000
1&

#11395000
1!
b101110111110110001000000011011 $

#11405000
b11101101011100000001101111000 $

#11415000
b10111110011010011010001100101100 $

#11425000
b11011000000100100001000000110111 $
1(

#11435000
b111000100000100111011000010000 $

#11445000
b1111111111111110011011100111110 $

#11455000
b11001100100001100010001111010 $

#11465000
0!

#11475000
0&

#11495000
0(

#11535000
1!
b10100010101000010001001001010 $

#11545000
b11011001110100000110101101010111 $

#11555000
b11001101000100011111100101100110 $

#11565000
b11000110100000011101000111011101 $
1&
1(

#11575000
b1001000001010010111000100010000 $

#11585000
b11110111101111001110010101111011 $

#11595000
b11001010011010000001100000111110 $

#11605000
0!

#11635000
0(

#11655000
0&

#11675000
1!
b10111101001000001001110111010 $

#11685000
b10111010100110100011101010111011 $

#11695000
b11100010010101101100000011111011 $

#11705000
b1101100110101111111000000101000 $
1(

#11715000
b11100101110100000001001010100010 $

#11725000
b10011010000010110011011110001100 $

#11735000
b111001100110000101101011101 $

#11745000
0!
1&

#11775000
0(

#11815000
1!
b1100010111101011101011110010110 $

#11825000
b11000001110110110000001000100011 $

#11835000
b1000100010000100100101010011 $
0&

#11845000
b1001010010001000010101001010010 $
1(

#11855000
b1011010110111101111010111001 $

#11865000
b1011111111100111111110011010010 $

#11875000
b11110011111100110100001111010101 $

#11885000
0!

#11915000
0(

#11925000
1&

#11955000
1!
b1000100101111000101000110101100 $

#11965000
b11110010001001100011000001001100 $

#11975000
b10010000000111111111011000111 $

#11985000
b11001101010001010011001010111110 $
1(

#11995000
b11110010001010111110001100001110 $

#12005000
b111101101110111111001101000100 $

#12015000
b1100101100001101001110110000 $
0&

#12025000
0!

#12055000
0(

#12095000
1!
b111110110001100111010000010 $

#12105000
b110011110101101100110111110010 $
1&

#12115000
b1111111111111110001011100010001 $

#12125000
b11100000110010000010010101010110 $
1(

#12135000
b11100110110001111110100111000 $

#12145000
b11101001001010010111110101010 $

#12155000
b11110101101101000011000110011111 $

#12165000
0!

#12195000
0&
0(

#12235000
1!
b11101110111001100000000010011101 $

#12245000
b11101100101000001111100010001001 $

#12255000
b11000010110111010010110011111000 $

#12265000
b11110010101111001000011011001000 $
1(

#12275000
b11100101000101001010011110100001 $

#12285000
b10111100001100001001110 $
1&

#12295000
b10110000010000001001000101100010 $

#12305000
0!

#12335000
0(

#12375000
1!
b1010111111000101001110011101 $
0&

